<svg xmlns="http://www.w3.org/2000/svg" class="svg-sprite">
    <symbol id="add-user" viewBox="0 0 22 16">
      <path fill-rule="evenodd" clip-rule="evenodd" d="M14 8c2.21 0 4-1.79 4-4s-1.79-4-4-4-4 1.79-4 4 1.79 4 4 4zM5 6V3H3v3H0v2h3v3h2V8h3V6H5zm9 4c-2.67 0-8 1.34-8 4v2h16v-2c0-2.66-5.33-4-8-4z" fill="currentColor"/>
    </symbol>
    <symbol id="arrow-down" viewBox="0 0 129 129">
      <path d="M121.3 34.6c-1.6-1.6-4.2-1.6-5.8 0l-51 51.1-51.1-51.1c-1.6-1.6-4.2-1.6-5.8 0-1.6 1.6-1.6 4.2 0 5.8l53.9 53.9c.8.8 1.8 1.2 2.9 1.2 1 0 2.1-.4 2.9-1.2l53.9-53.9c1.7-1.6 1.7-4.2.1-5.8z" fill="currentColor"/>
    </symbol>
    <symbol id="arrow" viewBox="0 0 16 16">
      <path fill-rule="evenodd" clip-rule="evenodd" d="M8 0L6.59 1.41 12.17 7H0v2h12.17l-5.58 5.59L8 16l8-8-8-8z" fill="currentColor"/>
    </symbol>
    <symbol id="attach-image" viewBox="0 0 18 18">
      <path fill-rule="evenodd" clip-rule="evenodd" d="M18 16V2c0-1.1-.9-2-2-2H2C.9 0 0 .9 0 2v14c0 1.1.9 2 2 2h14c1.1 0 2-.9 2-2zM5.5 10.5L8 13.51 11.5 9l4.5 6H2l3.5-4.5z" fill="#D8D8D8"/>
    </symbol>
    <symbol id="bin" viewBox="0 0 14 18">
      <path fill-rule="evenodd" clip-rule="evenodd" d="M1 16c0 1.1.9 2 2 2h8c1.1 0 2-.9 2-2V4H1v12zM14 1h-3.5l-1-1h-5l-1 1H0v2h14V1z" fill="currentColor"/>
    </symbol>
    <symbol id="close" viewBox="0 0 16 16">
      <path fill="none" d="M1 1h14v14H1z"/><path d="M1 1l14 14M15 1L1 15" stroke="currentColor"/>
    </symbol>
    <symbol id="comment" viewBox="0 0 20 20">
      <path fill-rule="evenodd" clip-rule="evenodd" d="M19.99 2c0-1.1-.89-2-1.99-2H2C.9 0 0 .9 0 2v12c0 1.1.9 2 2 2h14l4 4-.01-18zM16 12H4v-2h12v2zm0-3H4V7h12v2zm0-3H4V4h12v2z" fill="currentColor"/>
    </symbol>
    <symbol id="edit" viewBox="0 0 528.899 528.899">
      <path d="M328.883 89.125l107.59 107.589-272.34 272.34L56.604 361.465l272.279-272.34zm189.23-25.948l-47.981-47.981c-18.543-18.543-48.653-18.543-67.259 0l-45.961 45.961 107.59 107.59 53.611-53.611c14.382-14.383 14.382-37.577 0-51.959zM.3 512.69c-1.958 8.812 5.998 16.708 14.811 14.565l119.891-29.069L27.473 390.597.3 512.69z" fill="currentColor"/>
    </symbol>
    <symbol id="fb" viewBox="0 0 8 16">
      <path fill="none" d="M.8.8H8v14.4H.8z"/><mask id="a" maskUnits="userSpaceOnUse" x="0" y="0" width="9" height="16"><path fill-rule="evenodd" clip-rule="evenodd" d="M5.473 15.2V8.63H7.6l.315-2.558h-2.44V4.437c0-.74.197-1.246 1.22-1.246H8V.9C7.775.867 7 .8 6.1.8 4.215.8 2.93 1.996 2.93 4.187v1.891H.8v2.559h2.13V15.2h2.543z" fill="#fff"/></mask><g mask="url(#a)"><path fill="none" d="M-6.4-2.4h20.8v20.8H-6.4z"/><path fill-rule="evenodd" clip-rule="evenodd" d="M-6.4-2.4h20.8v20.8H-6.4V-2.4z" fill="#D8D8D8"/></g>
    </symbol>
    <symbol id="icon_done" viewBox="0 0 45.7 45.3">
      <path fill="#262626" d="M16.1 30.9L7.2 22l-3 3 11.9 11.9 25.4-25.4-3-3-22.4 22.4z"/>
    </symbol>
    <symbol id="like-comment" viewBox="0 0 22 20">
      <path fill-rule="evenodd" clip-rule="evenodd" d="M0 20h4V8H0v12zM22 9c0-1.1-.9-2-2-2h-6.31l.95-4.57.03-.32c0-.41-.17-.79-.44-1.06L13.17 0 6.59 6.59C6.22 6.95 6 7.45 6 8v10c0 1.1.9 2 2 2h9c.83 0 1.54-.5 1.84-1.22l3.02-7.05c.09-.23.14-.47.14-.73V9.09l-.01-.01L22 9z" fill="currentColor"/>
    </symbol>
    <symbol id="like-hand" viewBox="0 0 22 20">
      <path fill-rule="evenodd" clip-rule="evenodd" d="M0 20h4V8H0v12zM22 9c0-1.1-.9-2-2-2h-6.31l.95-4.57.03-.32c0-.41-.17-.79-.44-1.06L13.17 0 6.59 6.59C6.22 6.95 6 7.45 6 8v10c0 1.1.9 2 2 2h9c.83 0 1.54-.5 1.84-1.22l3.02-7.05c.09-.23.14-.47.14-.73V9.09l-.01-.01L22 9z" fill="currentColor"/>
    </symbol>
    <symbol id="like" viewBox="0 0 20 19">
      <path fill-rule="evenodd" clip-rule="evenodd" d="M10 18.35l-1.45-1.32C3.4 12.36 0 9.28 0 5.5 0 2.42 2.42 0 5.5 0 7.24 0 8.91.81 10 2.09 11.09.81 12.76 0 14.5 0 17.58 0 20 2.42 20 5.5c0 3.78-3.4 6.86-8.55 11.54L10 18.35z" fill="currentColor"/>
    </symbol>
    <symbol id="logo" viewBox="0 0 80 22">
      <path d="M33.994 19c2.63 0 4.19-.812 5.592-2.301l-1.91-2.03c-1.07.966-2.026 1.585-3.584 1.585-2.338 0-3.955-1.934-3.955-4.254 0-2.36 1.656-4.254 3.955-4.254 1.558 0 2.455.56 3.507 1.508l1.792-2.05C38.125 5.967 36.683 5 34.111 5 29.922 5 27 8.152 27 12c0 3.925 2.98 7 6.994 7zM45.358 18.768h3V7.978h4.15V5.232h-11.3v2.746h4.15v10.79zM52.45 18.768h3.06l1.246-3.036h5.767l1.247 3.036h3.137L61.062 5.135h-2.767L52.45 18.768zm5.378-5.666l1.812-4.39 1.812 4.39h-3.624zM80 5.232h-6.234c-3.196 0-5.144 1.663-5.144 4.467 0 2.224 1.188 3.597 2.922 4.235l-3.331 4.834h3.507l2.922-4.332H77v4.332h3V5.232zm-6.04 6.575c-1.46 0-2.299-.774-2.299-1.915 0-1.315.896-1.972 2.358-1.972h2.98v3.887H73.96z" fill="#fff"/><path fill-rule="evenodd" clip-rule="evenodd" d="M0 0l4.004 3.72h7.47l1.71 1.838h7.874l-2.43 5.005-.585 2.206-3.15-.415-1.71 1.562V22L0 15.708V0zm7.334 5.006h3.69l.63.688H9.989l.765 1.057h8.369l-1.26 2.48h-3.42l-2.97 3.078v-1.24H7.83L5.49 8.633h5.445l-3.6-3.628z" fill="#fff"/>
    </symbol>
    <symbol id="message" viewBox="0 0 20 16">
      <path fill-rule="evenodd" clip-rule="evenodd" d="M18 0H2C.9 0 .01.9.01 2L0 14c0 1.1.9 2 2 2h16c1.1 0 2-.9 2-2V2c0-1.1-.9-2-2-2zm0 4l-8 5-8-5V2l8 5 8-5v2z" fill="currentColor"/>
    </symbol>
    <symbol id="more" viewBox="0 0 375.636 375.635">
      <path fill="currentColor" d="M41.013 228.825C18.396 228.825 0 210.438 0 187.818c0-22.608 18.396-41.007 41.013-41.007 22.617 0 41.013 18.398 41.013 41.007-.001 22.62-18.396 41.007-41.013 41.007zM185.513 228.825c-22.617 0-41.013-18.387-41.013-41.007 0-22.608 18.396-41.007 41.013-41.007 22.613 0 41.013 18.398 41.013 41.007-.001 22.62-18.4 41.007-41.013 41.007zM334.623 228.825c-22.613 0-41.013-18.387-41.013-41.007 0-22.608 18.399-41.007 41.013-41.007 22.614 0 41.013 18.398 41.013 41.007 0 22.62-18.399 41.007-41.013 41.007z"/>
    </symbol>
    <symbol id="pwd" viewBox="0 0 15 20">
      <path fill-rule="evenodd" clip-rule="evenodd" d="M13.067 6.533h-.934V4.667A4.668 4.668 0 0 0 7.467 0 4.668 4.668 0 0 0 2.8 4.667v1.866h-.933C.84 6.533 0 7.373 0 8.4v9.333C0 18.76.84 19.6 1.867 19.6h11.2c1.026 0 1.866-.84 1.866-1.867V8.4c0-1.027-.84-1.867-1.866-1.867zm-5.6 8.4A1.872 1.872 0 0 1 5.6 13.067c0-1.027.84-1.867 1.867-1.867 1.026 0 1.866.84 1.866 1.867 0 1.027-.84 1.867-1.866 1.867zm2.893-8.4H4.573V4.667a2.896 2.896 0 0 1 2.894-2.894 2.896 2.896 0 0 1 2.893 2.894v1.866z" fill="#D8D8D8"/>
    </symbol>
    <symbol id="tw" viewBox="0 0 16 13">
      <path fill="none" d="M.8.4h14.4v12H.8z"/><mask id="a" maskUnits="userSpaceOnUse" x="0" y="0" width="16" height="13"><path fill-rule="evenodd" clip-rule="evenodd" d="M15.2 1.82a5.75 5.75 0 0 1-1.697.477 3.028 3.028 0 0 0 1.3-1.675c-.572.347-1.204.6-1.877.735A2.92 2.92 0 0 0 10.77.4C9.137.4 7.815 1.756 7.815 3.43c0 .237.026.468.077.69-2.456-.127-4.633-1.333-6.09-3.165a3.08 3.08 0 0 0-.4 1.523A3.05 3.05 0 0 0 2.716 5a2.89 2.89 0 0 1-1.338-.38v.039c0 1.468 1.018 2.692 2.37 2.97a2.905 2.905 0 0 1-1.334.053c.376 1.202 1.467 2.078 2.76 2.103A5.834 5.834 0 0 1 .8 11.04a8.218 8.218 0 0 0 4.529 1.36c5.433 0 8.405-4.615 8.405-8.619 0-.13-.003-.262-.008-.392A6.079 6.079 0 0 0 15.2 1.82z" fill="#fff"/></mask><g mask="url(#a)"><path fill="none" d="M-2.4-4.4h20.8v20.8H-2.4z"/><path fill-rule="evenodd" clip-rule="evenodd" d="M-2.4-4.4h20.8v20.8H-2.4V-4.4z" fill="#D8D8D8"/></g>
    </symbol>
    <symbol id="upload" viewBox="0 0 612 612">
      <path d="M218.953 197.915L285.6 117.13v290.864c0 11.281 9.139 20.44 20.4 20.44s20.4-9.139 20.4-20.44V116.355l67.299 81.559c7.997 8.038 20.972 8.038 28.969 0 7.996-8.038 7.996-21.053 0-29.09L321.851 46.608c-4.264-4.284-9.935-6.1-15.504-5.814-5.589-.285-11.24 1.53-15.504 5.814L189.985 168.824c-7.997 8.038-7.997 21.053 0 29.09 7.997 8.038 20.972 8.038 28.968.001zM591.6 367.235c-11.261 0-20.399 9.139-20.399 20.399v142.8H40.8v-142.8c0-11.261-9.139-20.399-20.4-20.399S0 376.374 0 387.635v163.2c0 11.261 9.139 20.4 20.4 20.4h571.2c11.261 0 20.4-9.14 20.4-20.4v-163.2c0-11.281-9.14-20.4-20.4-20.4z" fill="currentColor"/>
    </symbol>
    <symbol id="user" viewBox="0 0 15 15">
      <path fill-rule="evenodd" clip-rule="evenodd" d="M7.467 7.467A3.732 3.732 0 0 0 11.2 3.733 3.732 3.732 0 0 0 7.467 0a3.732 3.732 0 0 0-3.734 3.733 3.732 3.732 0 0 0 3.734 3.734zm0 1.866C4.975 9.333 0 10.583 0 13.066v1.867h14.933v-1.867c0-2.482-4.974-3.733-7.466-3.733z" fill="#D8D8D8"/>
    </symbol></svg>