<svg viewBox="0 0 16 16" fill="none" xmlns="http://www.w3.org/2000/svg">
<rect width="14" height="14" fill="currentColor" fill-opacity="0" transform="translate(1 1)"/>
<path d="M1 1L15 15" stroke="currentColor"/>
<path d="M15 1L1 15" stroke="currentColor"/>
</svg>
